module server_interface

go 1.20

require github.com/labstack/echo/v4 v4.10.0

require (
	github.com/golang/snappy v0.0.1 // indirect
	github.com/klauspost/compress v1.13.6 // indirect
	github.com/montanaflynn/stats v0.0.0-20171201202039-1bf9dbcd8cbe // indirect
	github.com/pkg/errors v0.9.1 // indirect
	github.com/xdg-go/pbkdf2 v1.0.0 // indirect
	github.com/xdg-go/scram v1.1.1 // indirect
	github.com/xdg-go/stringprep v1.0.3 // indirect
	github.com/youmark/pkcs8 v0.0.0-20181117223130-1be2e3e5546d // indirect
	golang.org/x/sync v0.0.0-20210220032951-036812b2e83c // indirect
)

require (
	github.com/golang-jwt/jwt v3.2.2+incompatible // indirect
	github.com/labstack/gommon v0.4.0 // indirect
	github.com/lib/pq v1.10.7
	github.com/mattn/go-colorable v0.1.13 // indirect
	github.com/mattn/go-isatty v0.0.16 // indirect
	github.com/valyala/bytebufferpool v1.0.0 // indirect
	github.com/valyala/fasttemplate v1.2.2 // indirect
	go.mongodb.org/mongo-driver v1.11.2
	golang.org/x/crypto v0.2.0 // indirect
	golang.org/x/net v0.4.0 // indirect
	golang.org/x/sys v0.3.0 // indirect
	golang.org/x/text v0.5.0 // indirect
	golang.org/x/time v0.2.0 // indirect
)
